{
  "type": "service_account",
  "project_id": "curate-7a668",
  "private_key_id": "4c6f3c9613dca1cf61d6e8344bee3eb4fbbf88c1",
  "private_key": "-----BEGIN PRIVATE KEY-----\nMIIEvwIBADANBgkqhkiG9w0BAQEFAASCBKkwggSlAgEAAoIBAQC+6T7SlsT0QLRS\n6uhK69rBUJrlJzwPrek/b2J1tONrJ1gN8Zwez5XmHhlkb63kI8PuU3A891sD74Kj\nfmFCLM+RmFgnvVD9GWOqeLDsu5qEw36GP19f7FSyvaWYJIikEJwvG6mSIMm4iC3t\nR2/xdF9aFUnHAaU+YqDUgHII3sF2efVidh3Dj+fl88D/b/jMeXTm5KOSbg6RxtuM\neSP/RSNJreZRHi9VLh1Pb8tRdtizP4H4gPGX1BB441wiOBb6fyQquLqVFybuQvDI\nschqNOdm3+WihEvNOfFq+ickreMPElLRf3U5lRMiSRSa69NrpTYec7q8/n4aTor3\nPbQ7wL5fAgMBAAECggEAB1K0IOjWojxPKA6wHWhoEKbfLvx7y2nGev/yfQUuY6bA\nZzyGDaqBzsnULuv+KOenghKIr7xlrRESNLCwc2Gu22z5rxonq3KLX6q+HD6WaHke\n3XBveW/InSVoK9D1V6T2Q/PulvCtPDTBEKTlkHoAMSW3s3htMCdUkWiVHaD9A80M\nN126HQ3LeDDi9AKQsPBzZdghZmJlECBSWCnp1wknzFON150WLyLQ6/PuMAFvVoLN\nUBclpAwEJJS5gzXAHZDii9JzIpZDNruS6o9IUNj08EIelifTXt/xPgJJDPZdXU10\nHeZ3fDj9T9qX/Zze4qbx7SCEl0WsntT0yU7Rhbq+mQKBgQDt6d30uLPsJ9oFmS+2\nOiKRZNcZlEzizolc0gIPMJKwSlWusDCroZeZC1jEQGzzHxA7mZWib2UJQ9QB6+Cw\nJKGucg1QSSfbslustQb2f0131vWU38C3gFWw3E1lJaiR7hNEqGJdeQPjs6mLef+R\nCbI/kYh1PZSPK6qwjOX37TBseQKBgQDNbKUVyZ+szW5UwFTR9p7+UkUDepoAitDP\nkMdYp33UBssj00LkY/GXSBD8GGtY6UCnzl7D5AF59DH0yENJdGZfySBYXCWcqSmA\n+u6VK7GJXYWjVIcTwWiVXpYK9Ipexygc3COfLpx+2Q8uhCdX7abazbi4J0UfBHnA\n1AZ9TsAblwKBgQCdR3b4+kXPf8Ts4IkfIa2Kiqx8d4KgicNbPmYoHodKzcl483cp\nb2klvs+O5bxguQ9lJzI5sQSNLG7yWjoul/jetv1ALyyPW4ipUv9oY14WNGAjbAwe\nA1Qi2HC9xjh7SHUqdVqZyo+cr0ANObiO7GcPCSm5v9z/DPIJRwwca4wQmQKBgQDH\nQkV3ttWNts74on8kEwbyRjbvQvMy53PYguT616y0B8rv+zJ9e3ySc7MV9VHbMpYm\nr4U4mmfcNcRnXgH2tFPBQcSAMRHCvkul8sGOLI3PYsoIPiuwPAEIMnF0OvQlLyV3\nqQlclMf0OvQA+Ot43OrmfnpZFq5zgdHf+0o4LjUmDQKBgQCCbsqROVV13XaVy8jK\nFWBj4TD4ujDpmAWBj3CRRPc03lcP47sDBLIKJaNw49EGyjVwdsW4ODqCHaA1TRbO\nklTGKiAsLF2z/lnvhzhe03sgG10njHNr4By3THTZAAgoNSlGTG6U9JNQrpPDAyx0\nw08Q256nhWH3mm9V3GCJbcv7yA==\n-----END PRIVATE KEY-----\n",
  "client_email": "firebase-adminsdk-jogjw@curate-7a668.iam.gserviceaccount.com",
  "client_id": "110190233898214167850",
  "auth_uri": "https://accounts.google.com/o/oauth2/auth",
  "token_uri": "https://oauth2.googleapis.com/token",
  "auth_provider_x509_cert_url": "https://www.googleapis.com/oauth2/v1/certs",
  "client_x509_cert_url": "https://www.googleapis.com/robot/v1/metadata/x509/firebase-adminsdk-jogjw%40curate-7a668.iam.gserviceaccount.com"
}
